{
	"info": {
		"_postman_id": "f1a2d6fc-9ac6-44cd-83fe-d40a6d2167a0",
		"name": "OTUS_DSS",
		"schema": "https://schema.getpostman.com/json/collection/v2.0.0/collection.json"
	},
	"item": [
		{
			"name": "01_Создание пациента: SUCCESS 200",
			"event": [
				{
					"listen": "test",
					"script": {
						"id": "86b8e969-fe05-4d5d-9faa-5ff825515288",
						"exec": [
							"var jsonData = JSON.parse(responseBody)",
							"",
							"pm.test(\"Success response is correct\", function () {",
							"    pm.expect(pm.response).to.have.property('code', 200);",
							"    pm.expect(pm.response).to.have.property('status', 'OK');",
							"    pm.expect(pm.response).to.have.header('Content-type', 'application/json');",
							"});",
							"",
							"pm.test('Base schema is valid', function() {",
							"  pm.expect(tv4.validate(jsonData, glFn.getEnvSchema(\"baseSchema\"))).to.be.true;",
							"});",
							"",
							"pm.test('Entity schema is valid', function() {",
							"  pm.expect(tv4.validate(jsonData.data[0], glFn.getEnvSchema(\"patientSchema\"))).to.be.true;",
							"});",
							"",
							"pm.test('Message data is valid', function() {",
							"  pm.expect(jsonData).to.have.property(\"message\", \"SUCCESS\");",
							"});",
							"",
							"pm.test(\"Entity data is correct\", function () {",
							"    pm.expect(jsonData.data[0]).to.have.property(\"GUID\", pm.environment.get(\"patientGUID\"));",
							"    pm.expect(jsonData.data[0]).to.have.property(\"birthDate\", pm.environment.get(\"patientBirthDate\"));",
							"    pm.expect(jsonData.data[0]).to.have.property(\"genderCode\", pm.environment.get(\"patientGenderCode\"));",
							"    pm.expect(jsonData.data[0]).to.have.property(\"ckdCode\", pm.environment.get(\"patientCKDCode\"));",
							"});",
							""
						],
						"type": "text/javascript"
					}
				},
				{
					"listen": "prerequest",
					"script": {
						"id": "670c6e19-e515-4ab6-b366-8c182c66c7e7",
						"exec": [
							"pm.environment.set(\"patientGUID\", pm.environment.get(\"randomGUID\"));",
							"pm.environment.set(\"patientBirthDate\", \"1990-01-30\");",
							"pm.environment.set(\"patientGenderCode\", \"MALE\");",
							"pm.environment.set(\"patientCKDCode\", \"5D\");",
							"",
							"",
							""
						],
						"type": "text/javascript"
					}
				}
			],
			"request": {
				"method": "POST",
				"header": [
					{
						"key": "Content-Type",
						"name": "Content-Type",
						"value": "application/json",
						"type": "text"
					}
				],
				"body": {
					"mode": "raw",
					"raw": "{\n    \"GUID\": \"{{patientGUID}}\",\n    \"birthDate\": \"{{patientBirthDate}}\",\n    \"genderCode\": \"{{patientGenderCode}}\",\n    \"ckdCode\": \"{{patientCKDCode}}\"\n}"
				},
				"url": "{{dssHost}}/patients"
			},
			"response": []
		},
		{
			"name": "02_Создания правила рекоммендации: SUCCESS 200",
			"event": [
				{
					"listen": "test",
					"script": {
						"id": "86b8e969-fe05-4d5d-9faa-5ff825515288",
						"exec": [
							"var jsonData = JSON.parse(responseBody)",
							"",
							"pm.test(\"Success response is correct\", function () {",
							"    pm.expect(pm.response).to.have.property('code', 200);",
							"    pm.expect(pm.response).to.have.property('status', 'OK');",
							"    pm.expect(pm.response).to.have.header('Content-type', 'application/json');",
							"});",
							"",
							"pm.test('Base schema is valid', function() {",
							"  pm.expect(tv4.validate(jsonData, glFn.getEnvSchema(\"baseSchema\"))).to.be.true;",
							"});",
							"",
							"pm.test('Entity schema is valid', function() {",
							"  pm.expect(tv4.validate(jsonData.data[0], glFn.getEnvSchema(\"recommendationSchema\"))).to.be.true;",
							"});",
							"",
							"pm.test('Message data is valid', function() {",
							"  pm.expect(jsonData).to.have.property(\"message\", \"SUCCESS\");",
							"});",
							"",
							"pm.test(\"Entity data is correct\", function () {",
							"    pm.expect(jsonData.data[0]).to.have.property(\"code\", pm.environment.get(\"recommendationCode\"));",
							"    pm.expect(jsonData.data[0]).to.have.property(\"groupCode\", pm.environment.get(\"recommendationGroupCode\"));",
							"    pm.expect(jsonData.data[0]).to.have.property(\"description\", pm.environment.get(\"recommendationDescription\"));",
							"    pm.expect(jsonData.data[0].condition).to.eql(JSON.parse(pm.environment.get(\"recommendationCondition\")));",
							"});",
							"",
							""
						],
						"type": "text/javascript"
					}
				},
				{
					"listen": "prerequest",
					"script": {
						"id": "670c6e19-e515-4ab6-b366-8c182c66c7e7",
						"exec": [
							"pm.environment.set(\"recommendationCode\", pm.environment.get(\"randomGUID\"));",
							"pm.environment.set(\"recommendationGroupCode\", pm.environment.get(\"randomGUID\"));",
							"pm.environment.set(\"recommendationDescription\", \"Описание рекоммендации\");",
							"pm.environment.set(\"recommendationCondition\", JSON.stringify({\"foo\": \"bar\"}));",
							""
						],
						"type": "text/javascript"
					}
				}
			],
			"request": {
				"method": "POST",
				"header": [
					{
						"key": "Content-Type",
						"name": "Content-Type",
						"type": "text",
						"value": "application/json"
					}
				],
				"body": {
					"mode": "raw",
					"raw": "{\n    \"code\": \"{{recommendationCode}}\",\n    \"groupCode\": \"{{recommendationGroupCode}}\",\n    \"description\": \"{{recommendationDescription}}\",\n    \"condition\": {{recommendationCondition}}\n}"
				},
				"url": "{{dssHost}}/recommendations"
			},
			"response": []
		},
		{
			"name": "03_Расчет рекоммендаций: SUCCESS 200",
			"event": [
				{
					"listen": "test",
					"script": {
						"id": "3d39c0fd-3493-442d-a373-10b920762ac5",
						"exec": [
							"var jsonData = JSON.parse(responseBody)",
							"",
							"pm.test(\"Success response is correct\", function () {",
							"    pm.expect(pm.response).to.have.property('code', 200);",
							"    pm.expect(pm.response).to.have.property('status', 'OK');",
							"    pm.expect(pm.response).to.have.header('Content-type', 'application/json');",
							"});",
							"",
							"pm.test('Base schema is valid', function() {",
							"  pm.expect(tv4.validate(jsonData, glFn.getEnvSchema(\"baseSchema\"))).to.be.true;",
							"});",
							"",
							"pm.test('Message data is valid', function() {",
							"  pm.expect(jsonData).to.have.property(\"message\", \"SUCCESS\");",
							"});",
							"",
							"pm.test('Entity schema is valid', function() {",
							"  pm.expect(tv4.validate(jsonData.data[0].criteria, glFn.getEnvSchema(\"criteriaSchema\"))).to.be.true;",
							"});",
							"",
							"pm.test(\"Entity data is correct\", function () {",
							"    pm.expect(jsonData.data[0].criteria).to.have.property(\"birthDate\", pm.environment.get(\"patientBirthDate\"));",
							"    pm.expect(jsonData.data[0].criteria).to.have.property(\"genderCode\", pm.environment.get(\"patientGenderCode\"));",
							"    pm.expect(jsonData.data[0].criteria).to.have.property(\"ckdCode\", pm.environment.get(\"patientCKDCode\"));",
							"    pm.expect(jsonData.data[0].criteria).to.have.property(\"params\", null);",
							"});"
						],
						"type": "text/javascript"
					}
				}
			],
			"request": {
				"method": "GET",
				"header": [],
				"url": {
					"raw": "{{dssHost}}/patients/{{patientGUID}}/recommendations?groupCode={{recommendationGroupCode}}",
					"host": [
						"{{dssHost}}"
					],
					"path": [
						"patients",
						"{{patientGUID}}",
						"recommendations"
					],
					"query": [
						{
							"key": "groupCode",
							"value": "{{recommendationGroupCode}}"
						}
					]
				},
				"description": "Расчет происходит по основным данным пациента:  \ngenderCode: MALE  \nckdCode: 5  \n\n```\n{\n\t\"patient\": {\n\t\t\"genderCode\": \"MALE\",\n\t\t\"ckdCode\": \"5\"\n\t}\n}\n```"
			},
			"response": []
		}
	],
	"event": [
		{
			"listen": "prerequest",
			"script": {
				"id": "8155cc19-d6eb-425a-8301-c1f66d5aea4f",
				"type": "text/javascript",
				"exec": [
					"var uuid = require('uuid');",
					"pm.environment.set('randomGUID', uuid.v4());",
					"",
					"glFn = {",
					"    getEnvSchema: function(name) {",
					"        return JSON.parse(pm.variables.get(name));",
					"}",
					"}",
					""
				]
			}
		},
		{
			"listen": "test",
			"script": {
				"id": "f989fb64-fcc5-42e6-a524-ea0f98f71c64",
				"type": "text/javascript",
				"exec": [
					""
				]
			}
		}
	]
}